{
    "_id": "VoWlFBfksysrf8zY",
    "content": "<p><span id=\"ctl00_MainContent_DetailedOutput\">You spent your early days in a religious monastery or cloister. You may have traveled out into the world to spread the message of your religion or because you cast away the teachings of your faith, but deep down you’ll always carry within you the lessons you learned.<br></span></p>\n<p><span id=\"ctl00_MainContent_DetailedOutput\">Choose two ability boosts. One must be to <strong>Intelligence</strong> or <strong>Wisdom</strong>, and one is a free ability boost.<br></span></p>\n<p><span id=\"ctl00_MainContent_DetailedOutput\">You're trained in the Religion skill and the Scribing Lore skill. You gain the <a class=\"entity-link\" draggable=\"true\" data-pack=\"pf2e.feats-srd\" data-id=\"x7EMZNMavris2aHY\"><i class=\"fas fa-suitcase\"></i> Student of the Canon</a> skill feat.</span></p>",
    "flags": {},
    "name": "Acolyte",
    "permission": {
        "default": 0
    }
}
