{
    "_id": "YYgcTGfA8UIJwv3Y",
    "content": "<p>You’ve excavated enough sites to know that ancient civilizations aren’t lost; they’re merely buried and waiting for the right scholar to unearth them and tell their story. You might have worked as a laborer or local guide before learning formal archaeological techniques.</p>\n<p>Choose two ability boosts. One must be to <strong>Constitution </strong>or <strong>Intelligence</strong>, and one is a free ability boost.</p>\n<p>You’re trained in the Society skill and the Architecture Lore skill. You gain the <a class=\"entity-link\" draggable=\"true\" data-pack=\"pf2e.feats-srd\" data-id=\"BocFD2KV0qgUC76x\"><i class=\"fas fa-suitcase\"></i> Additional Lore</a> skill feat related to an ancient culture or the history of a culture you’ve studied (such as Azlanti Lore or Osirian History Lore).</p>",
    "flags": {
        "core": {
            "sourceId": "JournalEntry.iK4WykVpdnLXnJnr"
        }
    },
    "name": "Archaeologist",
    "permission": {
        "default": 0
    }
}
