{
    "_id": "bJKgKrIQ5puuifcz",
    "data": {
        "description": {
            "chat": "",
            "unidentified": "",
            "value": "<div><strong>Weapons</strong> dagger, slingshot with 20 sling bullets</div>\n<div><strong>Gear</strong> adventurer’s pack, bandolier, 2 sets of caltrops, sheath</div>"
        },
        "equippedBulk": {
            "value": ""
        },
        "items": {
            "0xvuu": {
                "id": "7fSnvJ2xoSfa6JXD",
                "img": "systems/pf2e/icons/equipment/adventuring-gear/caltrops.jpg",
                "isContainer": false,
                "items": {},
                "name": "Caltrops",
                "pack": "pf2e.equipment-srd",
                "quantity": 2
            },
            "2kwtr": {
                "id": "Zycu6zaGvDsqLH5g",
                "img": "systems/pf2e/icons/equipment/adventuring-gear/sheath.jpg",
                "isContainer": false,
                "items": {},
                "name": "Sheath",
                "pack": "pf2e.equipment-srd",
                "quantity": 1
            },
            "5deup": {
                "id": "2req0jGaxz8hScdB",
                "img": "systems/pf2e/icons/equipment/adventuring-gear/adventurers-pack.jpg",
                "isContainer": true,
                "items": {},
                "name": "Adventurer's Pack",
                "pack": "pf2e.equipment-srd",
                "quantity": 1
            },
            "9dl9t": {
                "id": "B6B7tBWJSqOBz5zz",
                "img": "systems/pf2e/icons/equipment/treasure/currency/gold-pieces.jpg",
                "isContainer": false,
                "items": {},
                "name": "Gold Pieces",
                "pack": "pf2e.equipment-srd",
                "quantity": 13
            },
            "bhas6": {
                "id": "MKSeXwUm56c15MZa",
                "img": "systems/pf2e/icons/equipment/weapons/sling-bullets.jpg",
                "isContainer": false,
                "items": {},
                "name": "Sling Bullets",
                "pack": "pf2e.equipment-srd",
                "quantity": 20
            },
            "cywoc": {
                "id": "rQWaJhI5Bko5x14Z",
                "img": "systems/pf2e/icons/equipment/dagger.png",
                "isContainer": false,
                "items": {},
                "name": "Dagger",
                "pack": "pf2e.equipment-srd",
                "quantity": 1
            },
            "e9hae": {
                "id": "5Ew82vBF9YfaiY9f",
                "img": "systems/pf2e/icons/equipment/treasure/currency/silver-pieces.jpg",
                "isContainer": false,
                "items": {},
                "name": "Silver Pieces",
                "pack": "pf2e.equipment-srd",
                "quantity": 3
            },
            "i3bjk": {
                "id": "HamOU17sqb5ljiB5",
                "img": "systems/pf2e/icons/equipment/adventuring-gear/bandolier.jpg",
                "isContainer": false,
                "items": {},
                "name": "Bandolier",
                "pack": "pf2e.equipment-srd",
                "quantity": 1
            },
            "os51d": {
                "id": "lzJ8AVhRcbFul5fh",
                "img": "systems/pf2e/icons/equipment/treasure/currency/copper-pieces.jpg",
                "isContainer": false,
                "items": {},
                "name": "Copper Pieces",
                "pack": "pf2e.equipment-srd",
                "quantity": 7
            },
            "s2vtz": {
                "id": "UCH4myuFnokGv0vF",
                "img": "systems/pf2e/icons/equipment/sling.png",
                "isContainer": false,
                "items": {},
                "name": "Sling",
                "pack": "pf2e.equipment-srd",
                "quantity": 1
            }
        },
        "price": {
            "value": "1 gp, 6 sp"
        },
        "rarity": {
            "value": "common"
        },
        "source": {
            "value": ""
        },
        "traits": {
            "custom": "",
            "rarity": {
                "value": "common"
            },
            "value": [
                "sorcerer"
            ]
        },
        "usage": {
            "value": "held-in-one-hand"
        },
        "weight": {
            "value": "-"
        }
    },
    "effects": [],
    "flags": {},
    "img": "systems/pf2e/icons/equipment/adventuring-gear/classkit-sorcerer.jpg",
    "name": "Class Kit (Sorcerer)",
    "permission": {
        "default": 0
    },
    "type": "kit"
}
