{
    "_id": "3kH0fGOIoYvPNQsq",
    "data": {
        "actionCategory": {
            "value": ""
        },
        "actionType": {
            "value": "free"
        },
        "actions": {
            "value": ""
        },
        "description": {
            "chat": "",
            "unidentified": "",
            "value": "<p><strong>Trigger</strong> You're about to roll initiative.</p>\n<hr>\n<p>You allow your foes to make the first move in a show of incredible confidence. You don't roll initiative; instead you voluntarily go last. You gain @Compendium[pf2e.classfeatures.LzYi0OuOoypNb6jd]{Panache}.</p>\n<p>If more than one character uses this ability or another ability to go last, use the normal rules for resolving a tie: NPCs and monsters act before PCs, and within those groups, the creatures can choose whichever order they want.</p>"
        },
        "featType": {
            "value": "class"
        },
        "level": {
            "value": "2"
        },
        "prerequisites": {
            "value": ""
        },
        "rarity": {
            "value": "common"
        },
        "source": {
            "value": ""
        },
        "traits": {
            "rarity": {
                "value": "common"
            },
            "value": [
                "swashbuckler"
            ]
        },
        "usage": {
            "value": ""
        }
    },
    "flags": {},
    "img": "systems/pf2e/icons/features/feats/feats.jpg",
    "name": "After You",
    "permission": {
        "default": 0
    },
    "type": "feat"
}
