{
    "_id": "ffdXSxl4lVFrOvyQ",
    "data": {
        "actionCategory": {
            "value": ""
        },
        "actionType": {
            "value": "passive"
        },
        "actions": {
            "value": null
        },
        "description": {
            "chat": "",
            "unidentified": "",
            "value": "<p><span id=\"ctl00_MainContent_DetailedOutput\"><strong>Prerequisites</strong> <a class=\"entity-link\" draggable=\"true\" data-pack=\"pf2e.classfeatures\" data-id=\"3KPZ7svIO6kmmEKH\"><i class=\"fas fa-suitcase\"></i> Ruffian Racket</a><br><strong>Access</strong> Side with the Washboard Dogs in the gang conflict.<br><strong>Requirements</strong> You're wielding a melee weapon that deals bludgeoning damage and you're <a class=\"entity-link\" draggable=\"true\" data-pack=\"pf2e.conditionitems\" data-id=\"iU0fEDdBp3rXpTMC\"><i class=\"fas fa-suitcase\"></i> Hidden</a> from or <a class=\"entity-link\" draggable=\"true\" data-pack=\"pf2e.conditionitems\" data-id=\"VRSef5y1LmL2Hkjf\"><i class=\"fas fa-suitcase\"></i> Undetected</a> by an enemy.<br></span></p>\n<hr>\n<p>You emerge from hiding and deliver a blow that can knock an enemy sprawling to the ground. You Stride up to half your Speed, but you must end your movement next to a foe you're hidden from or undetected by. You then Strike that enemy with the required weapon; if you hit, the target is knocked <a class=\"entity-link\" draggable=\"true\" data-pack=\"pf2e.conditionitems\" data-id=\"j91X7x0XSomq8d60\"><i class=\"fas fa-suitcase\"></i> Prone</a>.</p>"
        },
        "featType": {
            "value": "class"
        },
        "level": {
            "value": "8"
        },
        "prerequisites": {
            "value": "Ruffian Rogue"
        },
        "rarity": {
            "value": "common"
        },
        "rules": [],
        "source": {
            "value": ""
        },
        "traits": {
            "custom": "",
            "rarity": {
                "value": "uncommon"
            },
            "value": [
                "rogue"
            ]
        },
        "usage": {
            "value": "held-in-one-hand"
        }
    },
    "effects": [],
    "flags": {
        "core": {
            "sourceId": "Item.XunwtACFdWqQeHEl"
        }
    },
    "img": "systems/pf2e/icons/features/feats/feats.jpg",
    "name": "Ambushing Knockdown",
    "permission": {
        "default": 0
    },
    "type": "feat"
}
