{
    "_id": "TZASOwBqVveGjw77",
    "data": {
        "actionCategory": {
            "value": ""
        },
        "actionType": {
            "value": "passive"
        },
        "actions": {
            "value": ""
        },
        "description": {
            "chat": "",
            "unidentified": "",
            "value": "<p><strong>Prerequisites </strong>@Compendium[pf2e.feats-srd.u6SDVWbzHnBBPNMo]{Linguist Dedication}, expert in Deception and Society</p>\n<hr>\n<p>You break down a specific individual's idiolect, memorizing their speech mannerisms and habits.</p>\n<p>If you interact with someone for at least 10 minutes, when you later attempt to @Compendium[pf2e.actionspf2e.AJstokjdG6iDjVjE]{Impersonate} that individual, you gain a +4 circumstance bonus to your Deception checks and DCs. Due to the intense character study required, you can't remember more than one idiolect at a time.</p>"
        },
        "featType": {
            "value": "archetype"
        },
        "level": {
            "value": "6"
        },
        "prerequisites": {
            "value": "Linguist Dedication, expert in Deception and Society"
        },
        "rarity": {
            "value": "common"
        },
        "source": {
            "value": ""
        },
        "traits": {
            "custom": "",
            "rarity": {
                "value": "common"
            },
            "value": [
                "archetype",
                "skill"
            ]
        },
        "usage": {
            "value": ""
        }
    },
    "flags": {},
    "img": "systems/pf2e/icons/features/feats/feats.jpg",
    "name": "Analyze Idiolect",
    "permission": {
        "default": 0
    },
    "type": "feat"
}
