{
    "_id": "1VLOhyq0IFMY2rqh",
    "data": {
        "actionCategory": {
            "value": ""
        },
        "actionType": {
            "label": "Action Type",
            "type": "String",
            "value": "action"
        },
        "actions": {
            "label": "Number of Actions",
            "type": "String",
            "value": "1"
        },
        "description": {
            "chat": "",
            "label": "Description",
            "type": "String",
            "unidentified": "",
            "value": "<p><strong>Prerequisites</strong> animal instinct</p>\n<hr>\n<p>You transform into your animal. You gain the effects of the 3rd-level animal form spell except you use your own statistics, temporary Hit Points, and unarmed attacks instead of those granted by animal form. You also retain the constant abilities of your gear. If your animal is a frog, your tongue's reach increases to 15 feet. Dismissing the transformation gains the rage trait.</p>"
        },
        "featType": {
            "label": "Feat Type",
            "type": "String",
            "value": "class"
        },
        "level": {
            "label": "Feat Level",
            "type": "String",
            "value": "8"
        },
        "prerequisites": {
            "label": "Prerequisites",
            "type": "String",
            "value": "animal instinct"
        },
        "rarity": {
            "value": "common"
        },
        "source": {
            "label": "Source",
            "type": "String",
            "value": ""
        },
        "traits": {
            "custom": "",
            "label": "Traits",
            "rarity": {
                "value": "common"
            },
            "type": "String",
            "value": [
                "barbarian",
                "concentrate",
                "instinct",
                "polymorph",
                "primal",
                "rage",
                "transmutation"
            ]
        },
        "usage": {
            "value": "held-in-one-hand"
        }
    },
    "flags": {},
    "img": "systems/pf2e/icons/features/feats/feats.jpg",
    "name": "Animal Rage",
    "permission": {
        "default": 0
    },
    "type": "feat"
}
