{
    "_id": "egmb8p3ZIYtx5aQN",
    "data": {
        "actionCategory": {
            "value": ""
        },
        "actionType": {
            "value": "action"
        },
        "actions": {
            "value": "2"
        },
        "description": {
            "chat": "",
            "unidentified": "",
            "value": "<p><strong>Prerequisites </strong><a class=\"entity-link\" data-pack=\"pf2e.feats-srd\" data-id=\"4QFElZoWjg1X0vsg\" draggable=\"true\"><i class=\"fas fa-suitcase\"></i> Archer Dedication</a></p>\n<hr>\n<p>You slow down, focus, and take a careful shot. Make a ranged <a class=\"entity-link\" data-pack=\"pf2e.actionspf2e\" data-id=\"VjxZFuUXrCU94MWR\" draggable=\"true\"><i class=\"fas fa-suitcase\"></i> Strike</a> with a weapon in the bow weapon group. You gain a +2 circumstance bonus to the attack roll and ignore the target's <a class=\"entity-link\" data-pack=\"pf2e.conditionspf2e\" data-id=\"DmAIPqOBomZ7H95W\" draggable=\"true\"><i class=\"fas fa-book-open\"></i> Concealed</a> condition. If the target is <a class=\"entity-link\" data-pack=\"pf2e.conditionspf2e\" data-id=\"iU0fEDdBp3rXpTMC\" draggable=\"true\"><i class=\"fas fa-book-open\"></i> Hidden</a>, reduce the flat check from being hidden from 11 to 5.</p>"
        },
        "featType": {
            "value": "archetype"
        },
        "level": {
            "value": "8"
        },
        "prerequisites": {
            "value": "Archer Dedication"
        },
        "rarity": {
            "value": "common"
        },
        "source": {
            "value": ""
        },
        "traits": {
            "rarity": {
                "value": "common"
            },
            "value": [
                "archetype",
                "concentrate"
            ]
        },
        "usage": {
            "value": ""
        }
    },
    "flags": {},
    "img": "systems/pf2e/icons/features/feats/feats.jpg",
    "name": "Archer's Aim",
    "permission": {
        "default": 0
    },
    "type": "feat"
}
