{
    "_id": "wjnfdh6WzN7HbmeE",
    "data": {
        "actionCategory": {
            "value": ""
        },
        "actionType": {
            "value": "passive"
        },
        "actions": {
            "value": ""
        },
        "description": {
            "chat": "",
            "unidentified": "",
            "value": "<p><strong>Prerequisites </strong>tenets of evil</p>\n<hr>\n<p>Your presence as an avatar of evil makes your foes more susceptible to terror and makes it almost impossible for them to shake off fear when you are near.</p>\n<p>Enemies within 15 feet of you take a -1 circumstance penalty to saving throws against fear. In addition, an enemy that ends its turn within 15 feet of you can't reduce the value of its <a class=\"entity-link\" data-pack=\"pf2e.conditionspf2e\" data-id=\"TBSHQspnbcqxsmjL\" draggable=\"true\"><i class=\"fas fa-book-open\"></i> Frightened</a> condition below 1.</p>"
        },
        "featType": {
            "value": "class"
        },
        "level": {
            "value": "4"
        },
        "prerequisites": {
            "value": "tenets of evil"
        },
        "rarity": {
            "value": "common"
        },
        "source": {
            "value": ""
        },
        "traits": {
            "rarity": {
                "value": "common"
            },
            "value": [
                "uncommon",
                "champion"
            ]
        },
        "usage": {
            "value": ""
        }
    },
    "flags": {},
    "img": "systems/pf2e/icons/features/feats/feats.jpg",
    "name": "Aura Of Despair",
    "permission": {
        "default": 0
    },
    "type": "feat"
}
