{
    "_id": "SGgK4BoUooA0HhTj",
    "data": {
        "actionCategory": {
            "value": ""
        },
        "actionType": {
            "value": "action"
        },
        "actions": {
            "value": "3"
        },
        "description": {
            "chat": "",
            "unidentified": "",
            "value": "<p><strong>Prerequisites</strong> @Compendium[pf2e.feats-srd.AimSmPyiMhJZVZRq]{Mauler Dedication}</p>\n<p><strong>Requirements</strong> You are wielding a melee weapon in two hands.</p>\n<hr>\n<p>You attack all nearby adversaries. Make a melee @Compendium[pf2e.actionspf2e.VjxZFuUXrCU94MWR]{Strike} with the required weapon against each enemy within your melee reach. Each attack counts toward your multiple attack penalty, but don't increase your penalty until you have made all your attacks.</p>"
        },
        "featType": {
            "value": "archetype"
        },
        "level": {
            "value": "16"
        },
        "prerequisites": {
            "value": "Mauler Dedication"
        },
        "rarity": {
            "value": "common"
        },
        "source": {
            "value": ""
        },
        "traits": {
            "rarity": {
                "value": "common"
            },
            "value": [
                "archetype",
                "flourish",
                "open"
            ]
        },
        "usage": {
            "value": ""
        }
    },
    "flags": {},
    "img": "systems/pf2e/icons/features/feats/feats.jpg",
    "name": "Avalanche Strike",
    "permission": {
        "default": 0
    },
    "type": "feat"
}
