{
    "_id": "ADgQzThbtGKvp6hy",
    "data": {
        "actionCategory": {
            "value": ""
        },
        "actionType": {
            "value": "passive"
        },
        "actions": {
            "value": null
        },
        "description": {
            "chat": "",
            "unidentified": "",
            "value": "<p><strong>Prerequisites </strong>master in Arcana, Crafting, Nature, Occultism, or Religion; Scrollmaster Dedication</p>\n<hr>\n<p>You learn how to apply your extensive knowledge of certain creatures using the lore you know. When you gain this feat, choose one of the following skills in which you have attained master proficiency: Arcana, Crafting, Nature, Occultism, or Religion. You can use the chosen skill to Recall Knowledge to identify any creature normally identifiable by any of the above skills. In addition, when you critically succeed at identifying a creature, you gain a +1 circumstance bonus to your next attack roll or saving throw against that creature.</p>"
        },
        "featType": {
            "value": "archetype"
        },
        "level": {
            "value": "10"
        },
        "prerequisites": {
            "value": "Scrollmaster Dedication, master in Arcana, Crafting, Nature, Occultism, or Religion"
        },
        "rarity": {
            "value": "common"
        },
        "rules": [],
        "source": {
            "value": ""
        },
        "traits": {
            "custom": "",
            "rarity": {
                "value": "common"
            },
            "value": [
                "archetype"
            ]
        },
        "usage": {
            "value": "held-in-one-hand"
        }
    },
    "effects": [],
    "flags": {
        "core": {
            "sourceId": "Item.zv3OB6UnAn781ctt"
        }
    },
    "img": "systems/pf2e/icons/features/feats/feats.jpg",
    "name": "Bestiary Scholar",
    "permission": {
        "default": 0
    },
    "type": "feat"
}
