{
    "_id": "rJ1XxUEACaQA9Lyo",
    "data": {
        "actionCategory": {
            "value": ""
        },
        "actionType": {
            "value": "passive"
        },
        "actions": {
            "value": ""
        },
        "description": {
            "chat": "",
            "unidentified": "",
            "value": "<p><strong>Archetype</strong> @Compendium[pf2e.archetypes.bDP7kO6bnQh6no0C]{Bright Lion}</p>\n<p><strong>Prerequisites</strong> member of the Bright Lions, not a worshipper of @Compendium[pf2e.deities.g1AVEGi8QibhS007]{Walkena}, trained in Stealth;</p>\n<p><strong>Access</strong> @Compendium[pf2e.backgrounds.skqghxn3svID1dyU]{Bright Lion} background</p>\n<hr>\n<p>You become trained in your choice of Deception or Diplomacy and in Mzali Lore; if you were already trained, you become an expert instead. You incorporate enough worship of Walkena in your daily life to avoid suspicion. You typically don't need to @Compendium[pf2e.actionspf2e.ewwCglB7XOPLUz72]{Lie} or @Compendium[pf2e.actionspf2e.AJstokjdG6iDjVjE]{Impersonate} to pass yourself off as a worshipper of Walkena. Against careful inspection, you gain a +4 circumstance bonus to Deception checks specifically to pass yourself off as a version of yourself faithful to Walkena.</p>\n<hr>\n<p><strong>Special</strong> You can't select another dedication feat until you have gained two other feats from the Bright Lion archetype.</p>"
        },
        "featType": {
            "value": "archetype"
        },
        "level": {
            "value": "2"
        },
        "prerequisites": {
            "value": "member of the Bright Lions, not a worshipper of Walkena, trained in Stealth, Bright Lion Background"
        },
        "rarity": {
            "value": "common"
        },
        "source": {
            "value": ""
        },
        "traits": {
            "custom": "",
            "rarity": {
                "value": "uncommon"
            },
            "selected": {},
            "value": [
                "archetype",
                "dedication"
            ]
        },
        "usage": {
            "value": "held-in-one-hand"
        }
    },
    "flags": {},
    "img": "systems/pf2e/icons/features/feats/feats.jpg",
    "name": "Bright Lion Dedication",
    "permission": {
        "default": 0
    },
    "type": "feat"
}
