{
    "_id": "tGXJU6yx7bYuyLvd",
    "data": {
        "actionCategory": {
            "value": ""
        },
        "actionType": {
            "label": "Action Type",
            "type": "String",
            "value": "action"
        },
        "actions": {
            "label": "Number of Actions",
            "type": "String",
            "value": "1"
        },
        "description": {
            "chat": "",
            "label": "Description",
            "type": "String",
            "unidentified": "",
            "value": "<p><strong>Requirements</strong> You are wielding a melee weapon in two hands</p>\n<hr>\n<p>Your final blow can make an impact even if it rebounds off a foe's defenses. Make a Strike with the required weapon. After the Strike, your turn ends. The Strike deals one extra weapon damage die, or two extra weapon damage dice if you're at least 18th level. The Strike also gains the following failure effect.</p>\n<p><strong>Failure</strong> You deal damage equal to one weapon damage die of the required weapon. Increase this to two dice if you're atleast 18th level.</p>"
        },
        "featType": {
            "label": "Feat Type",
            "type": "String",
            "value": "class"
        },
        "level": {
            "label": "Feat Level",
            "type": "String",
            "value": "12"
        },
        "prerequisites": {
            "label": "Prerequisites",
            "type": "String",
            "value": "You are wielding a melee weapon in two hands"
        },
        "rarity": {
            "value": "common"
        },
        "source": {
            "label": "Source",
            "type": "String",
            "value": ""
        },
        "traits": {
            "custom": "",
            "label": "Traits",
            "rarity": {
                "value": "common"
            },
            "type": "String",
            "value": [
                "fighter",
                "press"
            ]
        },
        "usage": {
            "value": "held-in-one-hand"
        }
    },
    "flags": {},
    "img": "systems/pf2e/icons/features/feats/feats.jpg",
    "name": "Brutal Finish",
    "permission": {
        "default": 0
    },
    "type": "feat"
}
