{
    "_id": "2vlQ09QIBli5u9Gz",
    "data": {
        "actionCategory": {
            "value": ""
        },
        "actionType": {
            "value": "passive"
        },
        "actions": {
            "value": ""
        },
        "description": {
            "chat": "",
            "unidentified": "",
            "value": "<p>You have heard the Call, and in constantly resisting that persistent demand, you've developed a mental bulwark against effects that would target your mind.</p>\n<p>You gain a +1 circumstance bonus to Will saving throws against mental effects. If you roll a success on your saving throw against a mental effect that would make you <a class=\"entity-link\" data-pack=\"pf2e.conditionspf2e\" data-id=\"9qGBRpbX9NEwtAAr\" draggable=\"true\"><i class=\"fas fa-book-open\"></i> Controlled</a>, you get a critical success instead.</p>"
        },
        "featType": {
            "value": "ancestry"
        },
        "level": {
            "value": "5"
        },
        "prerequisites": {
            "value": ""
        },
        "rarity": {
            "value": "common"
        },
        "source": {
            "value": ""
        },
        "traits": {
            "rarity": {
                "value": "common"
            },
            "value": [
                "changeling"
            ]
        },
        "usage": {
            "value": ""
        }
    },
    "flags": {},
    "img": "systems/pf2e/icons/features/feats/feats.jpg",
    "name": "Called",
    "permission": {
        "default": 0
    },
    "type": "feat"
}
