{
    "_id": "qQh8wnslOagixxD1",
    "data": {
        "actionCategory": {
            "value": ""
        },
        "actionType": {
            "value": "passive"
        },
        "actions": {
            "value": ""
        },
        "description": {
            "chat": "",
            "unidentified": "",
            "value": "<p><span id=\"ctl00_MainContent_DetailedOutput\"><strong>Prerequisites</strong> Pathfinder Agent Dedication<br></span></p>\n<hr>\n<p>You've explored enough dusty tombs and hidden vaults to gain a sixth sense about traps, and you sometimes notice them even when you're not trying to. Even if you aren't Searching in exploration mode, you get a check to find traps that normally require you to Search for them. You still need to meet any other requirements to find the trap.&nbsp;</p>"
        },
        "featType": {
            "value": "archetype"
        },
        "level": {
            "value": "4"
        },
        "prerequisites": {
            "value": "Pathfinder Agent Dedication"
        },
        "rarity": {
            "value": "common"
        },
        "source": {
            "value": ""
        },
        "traits": {
            "custom": "",
            "rarity": {
                "value": "common"
            },
            "value": [
                "archetype"
            ]
        },
        "usage": {
            "value": "held-in-one-hand"
        }
    },
    "flags": {},
    "img": "systems/pf2e/icons/features/feats/feats.jpg",
    "name": "Careful Explorer",
    "permission": {
        "default": 0
    },
    "type": "feat"
}
