{
    "_id": "xYakFeP6olBsxpZN",
    "data": {
        "actionCategory": {
            "value": ""
        },
        "actionType": {
            "label": "Action Type",
            "type": "String",
            "value": "action"
        },
        "actions": {
            "label": "Number of Actions",
            "type": "String",
            "value": "1"
        },
        "description": {
            "chat": "",
            "label": "Description",
            "type": "String",
            "unidentified": "",
            "value": "<p><strong>Prerequisites</strong> harmful font, evil alignment</p>\n<hr>\n<p>You grasp the animating force within an undead creature and bend it to your will. If the next action you use is to cast harm targeting one undead creature, you transform the effects of that harm spell. Instead of harm's normal effects, the target becomes controlled by you if its level is equal to or lower than your level – 3. It can attempt a Will saving throw to resist being controlled by you. If the target is already under someone else's command, the controlling creature also rolls a saving throw, and the undead uses the better result.</p>\n<p><strong>Critical Success</strong> The target is unaffected and is temporarily immune for 24 hours.</p>\n<p><strong>Success</strong> The target is unaffected.</p>\n<p><strong>Failure</strong> The undead creature becomes a minion under your control. The spell gains a duration of 1 minute, but it is dismissed if you or an ally attacks the minion undead.</p>\n<p><strong>Critical Failure</strong> As failure, but the duration is 1 hour.</p>"
        },
        "featType": {
            "label": "Feat Type",
            "type": "String",
            "value": "class"
        },
        "level": {
            "label": "Feat Level",
            "type": "String",
            "value": "4"
        },
        "prerequisites": {
            "label": "Prerequisites",
            "type": "String",
            "value": "harmful font, evil alignment"
        },
        "rarity": {
            "value": "common"
        },
        "source": {
            "label": "Source",
            "type": "String",
            "value": ""
        },
        "traits": {
            "custom": "",
            "label": "Traits",
            "rarity": {
                "value": "common"
            },
            "type": "String",
            "value": [
                "concentrate",
                "cleric",
                "metamagic"
            ]
        },
        "usage": {
            "value": "held-in-one-hand"
        }
    },
    "flags": {},
    "img": "systems/pf2e/icons/features/feats/feats.jpg",
    "name": "Command Undead",
    "permission": {
        "default": 0
    },
    "type": "feat"
}
