{
    "_id": "DR6vessIpXTLM6Xa",
    "data": {
        "actionCategory": {
            "value": ""
        },
        "actionType": {
            "value": "passive"
        },
        "actions": {
            "value": ""
        },
        "description": {
            "chat": "",
            "unidentified": "",
            "value": "<p><span id=\"ctl00_MainContent_DetailedOutput\"><strong>Prerequisites</strong> Lost in the Crowd<br></span></p>\n<hr>\n<p>You use the crowd to your advantage, diverting your foes' attention to potential hidden dangers in the crowd. When determining if your foe is flanked, treat all squares occupied by a crowd as if they were occupied by an ally with a melee reach of 5 feet.</p>"
        },
        "featType": {
            "value": "archetype"
        },
        "level": {
            "value": "6"
        },
        "prerequisites": {
            "value": "Lost in the Crowd"
        },
        "rarity": {
            "value": "common"
        },
        "source": {
            "value": ""
        },
        "traits": {
            "custom": "",
            "rarity": {
                "value": "common"
            },
            "value": [
                "archetype"
            ]
        },
        "usage": {
            "value": "held-in-one-hand"
        }
    },
    "flags": {},
    "img": "systems/pf2e/icons/features/feats/feats.jpg",
    "name": "Crowd Mastery",
    "permission": {
        "default": 0
    },
    "type": "feat"
}
