{
    "_id": "68Kc4UyhnP4l8mxq",
    "data": {
        "actionCategory": {
            "value": ""
        },
        "actionType": {
            "value": "action"
        },
        "actions": {
            "value": "2"
        },
        "description": {
            "chat": "",
            "unidentified": "",
            "value": "<p><strong>Prerequisites </strong>Pathfinder Agent Dedication, trained in Survival</p>\n<hr>\n<p>You've trained yourself to maintain a strong sense of direction at all times, even when you can't use a compass or see the sky above. You immediately intuit which direction is north (assuming the concept of north exists at your current location).</p>"
        },
        "featType": {
            "value": "archetype"
        },
        "level": {
            "value": "4"
        },
        "prerequisites": {
            "value": "Pathfinder Agent Dedication, trained in Survival"
        },
        "rarity": {
            "value": "common"
        },
        "rules": [],
        "source": {
            "value": ""
        },
        "traits": {
            "custom": "",
            "rarity": {
                "value": "common"
            },
            "value": [
                "archetype",
                "concentrate",
                "skill"
            ]
        },
        "usage": {
            "value": "held-in-one-hand"
        }
    },
    "effects": [],
    "flags": {
        "core": {
            "sourceId": "Item.5ArTkTLzOS0wZLwG"
        }
    },
    "img": "systems/pf2e/icons/features/feats/feats.jpg",
    "name": "Dead Reckoning",
    "permission": {
        "default": 0
    },
    "type": "feat"
}
