{
    "_id": "ozvYhY4hG1deXly8",
    "data": {
        "actionCategory": {
            "value": ""
        },
        "actionType": {
            "label": "Action Type",
            "type": "String",
            "value": "passive"
        },
        "actions": {
            "label": "Number of Actions",
            "type": "String",
            "value": ""
        },
        "description": {
            "chat": "",
            "label": "Description",
            "type": "String",
            "unidentified": "",
            "value": "<p>You can lob bombs with great force and a precise trajectory to angle the splash in a cone spraying in a single direction. When throwing an alchemical bomb with the splash trait, instead of splashing all squares adjacent to the target, you can treat the target's space as the first affected square of a 15-foot cone directed away from you, potentially allowing you to avoid allies and splash deeper into enemy lines. If the target takes up more than a single square, the target's square closest to you is the first affected square of the cone.</p>"
        },
        "featType": {
            "label": "Feat Type",
            "type": "String",
            "value": "class"
        },
        "level": {
            "label": "Feat Level",
            "type": "String",
            "value": "6"
        },
        "prerequisites": {
            "label": "Prerequisites",
            "type": "String",
            "value": ""
        },
        "rarity": {
            "value": "common"
        },
        "source": {
            "label": "Source",
            "type": "String",
            "value": ""
        },
        "traits": {
            "custom": "",
            "label": "Traits",
            "rarity": {
                "value": "common"
            },
            "type": "String",
            "value": [
                "alchemist"
            ]
        },
        "usage": {
            "value": "held-in-one-hand"
        }
    },
    "flags": {},
    "img": "systems/pf2e/icons/features/feats/feats.jpg",
    "name": "Directional Bombs",
    "permission": {
        "default": 0
    },
    "type": "feat"
}
