{
    "_id": "gMPnLWLlHoNU9Lqv",
    "data": {
        "actionCategory": {
            "value": ""
        },
        "actionType": {
            "value": "passive"
        },
        "actions": {
            "value": ""
        },
        "description": {
            "chat": "",
            "unidentified": "",
            "value": "<p><strong>Prerequisites</strong> ability to cast spells from spell slots, @Compendium[pf2e.feats-srd.oo34CloLefFRi72w]{Dragon Disciple Dedication}</p>\n<hr>\n<p>You've discovered how to add the magic of dragons to your tradition.</p>\n<p>Add the draconic bloodline's granted spells to your spell list; you must still learn them or add them to your repertoire as normal. These spells are @Compendium[pf2e.spells-srd.TVKNbcgTee19PXZR]{Shield}, @Compendium[pf2e.spells-srd.Gb7SeieEvd0pL2Eh]{True Strike}, @Compendium[pf2e.spells-srd.Fr58LDSrbndgld9n]{Resist Energy}, @Compendium[pf2e.spells-srd.o6YCGx4lycsYpww4]{Haste}, @Compendium[pf2e.spells-srd.tgIhRUFtgDSELpJE]{Spell Immunity}, @Compendium[pf2e.spells-srd.forsqeofEszBNtLq]{Chromatic Wall}, @Compendium[pf2e.spells-srd.5c692cCcTDXjSEzk]{Dragon Form}, @Compendium[pf2e.spells-srd.O6VQC1Bs4aSYDa6R]{Mask of Terror}, @Compendium[pf2e.spells-srd.iL6TujgTCtRRa0Y0]{Prismatic Wall}, and @Compendium[pf2e.spells-srd.fkDeKktdmbeplYRY]{Overwhelming Presence}.</p>"
        },
        "featType": {
            "value": "archetype"
        },
        "level": {
            "value": "4"
        },
        "prerequisites": {
            "value": "ability to cast spells from spell slots, Dragon Disciple Dedication"
        },
        "rarity": {
            "value": "common"
        },
        "source": {
            "value": ""
        },
        "traits": {
            "rarity": {
                "value": "common"
            },
            "value": [
                "archetype"
            ]
        },
        "usage": {
            "value": ""
        }
    },
    "flags": {},
    "img": "systems/pf2e/icons/features/feats/feats.jpg",
    "name": "Dragon Arcana",
    "permission": {
        "default": 0
    },
    "type": "feat"
}
