{
    "_id": "YhnCjiHNlS3nCeoC",
    "data": {
        "actionCategory": {
            "value": ""
        },
        "actionType": {
            "value": "passive"
        },
        "actions": {
            "value": ""
        },
        "description": {
            "chat": "",
            "unidentified": "",
            "value": "<p>You're exceptional in your use of two weapons. You gain the <a class=\"entity-link\" data-pack=\"pf2e.feats-srd\" data-id=\"onde0SxLoxLBTnvm\" draggable=\"true\"><i class=\"fas fa-suitcase\"></i> Double Slice</a> fighter feat. This serves as Double Slice for the purpose of meeting prerequisites.</p>\n<p><strong>Special</strong> You can't select another dedication feat until you gain two other feats from the dual-weapon warrior archetype.</p>"
        },
        "featType": {
            "value": "archetype"
        },
        "level": {
            "value": "2"
        },
        "prerequisites": {
            "value": ""
        },
        "rarity": {
            "value": "common"
        },
        "source": {
            "value": ""
        },
        "traits": {
            "rarity": {
                "value": "common"
            },
            "value": [
                "archetype",
                "dedication"
            ]
        },
        "usage": {
            "value": ""
        }
    },
    "flags": {},
    "img": "systems/pf2e/icons/features/feats/feats.jpg",
    "name": "Dual-Weapon Warrior Dedication",
    "permission": {
        "default": 0
    },
    "type": "feat"
}
