{
    "_id": "EVNd9hZs49b1pScR",
    "data": {
        "actionCategory": {
            "value": ""
        },
        "actionType": {
            "value": "passive"
        },
        "actions": {
            "value": ""
        },
        "description": {
            "chat": "",
            "unidentified": "",
            "value": "<p><strong>Prerequisites</strong> <a class=\"entity-link\" data-pack=\"pf2e.feats-srd\" data-id=\"YhnCjiHNlS3nCeoC\" draggable=\"true\"><i class=\"fas fa-suitcase\"></i> Dual-Weapon Warrior Dedication</a></p>\n<hr>\n<p>When you lash out with both weapons, you leave no room for the target to escape your attack.</p>\n<p>When you use <a class=\"entity-link\" data-pack=\"pf2e.feats-srd\" data-id=\"onde0SxLoxLBTnvm\" draggable=\"true\"><i class=\"fas fa-suitcase\"></i> Double Slice</a>, if you miss with both <a class=\"entity-link\" data-pack=\"pf2e.actionspf2e\" data-id=\"VjxZFuUXrCU94MWR\" draggable=\"true\"><i class=\"fas fa-suitcase\"></i> Strikes</a>, choose one of the two weapons and apply the effects of a hit with that weapon.</p>\n<p>You can't choose a weapon if your attack roll with that weapon was a critical failure, meaning you still miss entirely if both attack rolls were critical failures.</p>"
        },
        "featType": {
            "value": "archetype"
        },
        "level": {
            "value": "14"
        },
        "prerequisites": {
            "value": "Dual-Weapon Dedication"
        },
        "rarity": {
            "value": "common"
        },
        "source": {
            "value": ""
        },
        "traits": {
            "rarity": {
                "value": "common"
            },
            "value": [
                "archetype"
            ]
        },
        "usage": {
            "value": ""
        }
    },
    "flags": {},
    "img": "systems/pf2e/icons/features/feats/feats.jpg",
    "name": "Dual Onslaught",
    "permission": {
        "default": 0
    },
    "type": "feat"
}
