{
    "_id": "RYUb5oxd46Yvdypz",
    "data": {
        "actionCategory": {
            "value": ""
        },
        "actionType": {
            "value": "passive"
        },
        "actions": {
            "value": ""
        },
        "description": {
            "chat": "",
            "unidentified": "",
            "value": "<section class=\"details\">\n<p><strong>Prerequisites</strong> @Compendium[pf2e.spells-srd.qJZZdYBdNaWRJFER]{Wholeness of Body}</p>\n</section>\n<section class=\"content\">\n<p>Just as the Vale of Aroden retains light and life despite inhospitable surroundings, you can sustain yourself regardless of your environment. You don't need to eat, drink, or breathe. In addition, you can cast the wholeness of body ki spell almost effortlessly. You can cast it as a free action that triggers at the start of your turn.</p>\n</section>"
        },
        "featType": {
            "value": "class"
        },
        "level": {
            "value": "20"
        },
        "prerequisites": {
            "value": ""
        },
        "rarity": {
            "value": "common"
        },
        "source": {
            "value": ""
        },
        "traits": {
            "custom": "",
            "rarity": {
                "value": "uncommon"
            },
            "selected": {
                "monk": "Monk"
            },
            "value": [
                "monk"
            ]
        },
        "usage": {
            "value": "held-in-one-hand"
        }
    },
    "flags": {},
    "img": "systems/pf2e/icons/features/feats/feats.jpg",
    "name": "Endurance of the Rooted Tree",
    "permission": {
        "default": 0
    },
    "type": "feat"
}
