{
    "_id": "Q4puGx4kBMXy45fa",
    "data": {
        "actionCategory": {
            "value": ""
        },
        "actionType": {
            "value": "action"
        },
        "actions": {
            "value": "1"
        },
        "description": {
            "chat": "",
            "unidentified": "",
            "value": "<p><strong>Prerequisites </strong>a familiar</p>\n<hr>\n<p>You use your familiar's senses as easily as your own.</p>\n<p>You project your senses into your familiar. When you do, you lose all sensory information from your own body, but you can sense through your familiar's body until you @Compendium[pf2e.actionspf2e.AjLSHZSWQ90exdLo]{Dismiss} the effect.</p>\n<p>While projecting your senses in this way, you can converse telepathically with your familiar if it understands a language.</p>\n<p><strong>Special</strong> This feat has the trait corresponding to the tradition of spells you cast (arcane, divine, occult, or primal).</p>"
        },
        "featType": {
            "value": "class"
        },
        "level": {
            "value": "12"
        },
        "prerequisites": {
            "value": "a familiar"
        },
        "rarity": {
            "value": "common"
        },
        "source": {
            "value": ""
        },
        "traits": {
            "rarity": {
                "value": "common"
            },
            "value": [
                "concentrate",
                "divination",
                "witch"
            ]
        },
        "usage": {
            "value": ""
        }
    },
    "flags": {},
    "img": "systems/pf2e/icons/features/feats/feats.jpg",
    "name": "Familiar's Eyes",
    "permission": {
        "default": 0
    },
    "type": "feat"
}
