{
    "_id": "SAOtGk9k8veaX3Ww",
    "data": {
        "actionCategory": {
            "value": ""
        },
        "actionType": {
            "value": "passive"
        },
        "actions": {
            "value": ""
        },
        "description": {
            "chat": "",
            "unidentified": "",
            "value": "<p>You love to kick your enemies when they're down, and you look fabulous when you do.</p>\n<p>When you make a melee weapon @Compendium[pf2e.actionspf2e.VjxZFuUXrCU94MWR]{Strike} against a foe that has at least two of the following conditions, you gain a circumstance bonus to your damage roll equal to the number of these conditions the foe has. The qualifying conditions are @Compendium[pf2e.conditionitems.i3OJZU2nk64Df3xm]{Clumsy}, @Compendium[pf2e.conditionitems.4D2KBtexWXa6oUMR]{Drained}, @Compendium[pf2e.conditionitems.MIRkyAjyBeXivMa7]{Enfeebled}, @Compendium[pf2e.conditionitems.TBSHQspnbcqxsmjL]{Frightened}, @Compendium[pf2e.conditionitems.fesd1n5eVhpCSS18]{Sickened}, and @Compendium[pf2e.conditionitems.e1XGnhKNSQIm5IXg]{Stupefied}. If you hit such a foe, you gain a +1 circumstance bonus to skill checks to @Compendium[pf2e.actionspf2e.21WIfSu7Xd7uKqV8]{Tumble Through} and to perform your style's @Compendium[pf2e.classfeatures.LzYi0OuOoypNb6jd]{Panache}-granting actions until the end of your turn.</p>"
        },
        "featType": {
            "value": "class"
        },
        "level": {
            "value": "8"
        },
        "prerequisites": {
            "value": ""
        },
        "rarity": {
            "value": "common"
        },
        "source": {
            "value": ""
        },
        "traits": {
            "custom": "",
            "rarity": {
                "value": "rare"
            },
            "selected": {
                "swashbuckler": "Swashbuckler"
            },
            "value": [
                "swashbuckler"
            ]
        },
        "usage": {
            "value": "held-in-one-hand"
        }
    },
    "flags": {},
    "img": "systems/pf2e/icons/features/feats/feats.jpg",
    "name": "Flamboyant Cruelty",
    "permission": {
        "default": 0
    },
    "type": "feat"
}
