{
    "_id": "u2rvvAqZBugZgcYg",
    "data": {
        "actionCategory": {
            "value": ""
        },
        "actionType": {
            "value": "passive"
        },
        "actions": {
            "value": ""
        },
        "description": {
            "chat": "",
            "unidentified": "",
            "value": "<p><strong>Prerequisites</strong> @Compendium[pf2e.feats-srd.vxA0VRN10OwUkGAr]{Cruelty}</p>\n<hr>\n<p>The extent of the corruption within you does more than simply sap your foes' strength, it devastates their minds and reflexes.</p>\n<p>When you use Cruelty, choose whether you want to make the creature enfeebled as normal, to make it @Compendium[pf2e.conditionspf2e.i3OJZU2nk64Df3xm]{Clumsy} 1 on a failed save (clumsy 2 on a critical failure), or to make it @Compendium[pf2e.conditionspf2e.e1XGnhKNSQIm5IXg]{Stupefied} 1 on a failed save (stupefied 2 on a critical failure).</p>"
        },
        "featType": {
            "value": "class"
        },
        "level": {
            "value": "8"
        },
        "prerequisites": {
            "value": "Cruelty"
        },
        "rarity": {
            "value": "common"
        },
        "source": {
            "value": ""
        },
        "traits": {
            "rarity": {
                "value": "common"
            },
            "value": [
                "uncommon",
                "champion"
            ]
        },
        "usage": {
            "value": ""
        }
    },
    "flags": {},
    "img": "systems/pf2e/icons/features/feats/feats.jpg",
    "name": "Greater Cruelty",
    "permission": {
        "default": 0
    },
    "type": "feat"
}
