{
    "_id": "RcQv16RK80R6c4id",
    "data": {
        "actionCategory": {
            "value": ""
        },
        "actionType": {
            "value": "passive"
        },
        "actions": {
            "value": null
        },
        "description": {
            "chat": "",
            "unidentified": "",
            "value": "<p><strong>Prerequisites </strong>Swordmaster Dedication, expert in Crafting</p>\n<hr>\n<p>You've learned to repair your equipment even in challenging circumstances, making use of what you have available. You can attempt to Repair an item without a repair kit, instead&nbsp; improvising tools out of your gear or found items. This adds 5 minutes to the time it takes to Repair the item. You can also Repair an item while on the move without needing a stable surface. This adds 10 minutes to the times it takes to Repair the item.</p>"
        },
        "featType": {
            "value": "archetype"
        },
        "level": {
            "value": "8"
        },
        "prerequisites": {
            "value": "Swordmaster Dedication, expert in Crafting"
        },
        "rarity": {
            "value": "common"
        },
        "rules": [],
        "source": {
            "value": ""
        },
        "traits": {
            "custom": "",
            "rarity": {
                "value": "common"
            },
            "value": [
                "archetype",
                "exploration",
                "manipulate",
                "skill"
            ]
        },
        "usage": {
            "value": "held-in-one-hand"
        }
    },
    "effects": [],
    "flags": {
        "core": {
            "sourceId": "Item.qWM73wkxxdk8rbZ4"
        }
    },
    "img": "systems/pf2e/icons/features/feats/feats.jpg",
    "name": "Improvised Crafting",
    "permission": {
        "default": 0
    },
    "type": "feat"
}
