{
    "_id": "OzvvsyjAWWij4mmm",
    "data": {
        "actionCategory": {
            "value": ""
        },
        "actionType": {
            "value": "reaction"
        },
        "actions": {
            "value": ""
        },
        "description": {
            "chat": "",
            "unidentified": "",
            "value": "<p><strong>Trigger</strong> Your prey is within reach and attempts to move away from you.</p>\n<hr>\n<p>Your prey can't escape. @Compendium[pf2e.actionspf2e.Bcxarzksqt9ezrs6]{Stride} up to your Speed, following the foe and keeping it in reach throughout its movement until it stops moving or you've moved your full Speed.</p>\n<p>You can use Keep Pace to @Compendium[pf2e.actionspf2e.H6v1VgowHaKHnVlG]{Burrow}, @Compendium[pf2e.actionspf2e.pprgrYQ1QnIDGZiy]{Climb}, @Compendium[pf2e.actionspf2e.cS9nfDRGD83bNU1p]{Fly}, or @Compendium[pf2e.actionspf2e.c8TGiZ48ygoSPofx]{Swim} instead of Stride if you have the corresponding movement type.</p>"
        },
        "featType": {
            "value": "archetype"
        },
        "level": {
            "value": "6"
        },
        "prerequisites": {
            "value": ""
        },
        "rarity": {
            "value": "common"
        },
        "source": {
            "value": ""
        },
        "traits": {
            "rarity": {
                "value": "common"
            },
            "value": [
                "archetype"
            ]
        },
        "usage": {
            "value": ""
        }
    },
    "flags": {},
    "img": "systems/pf2e/icons/features/feats/feats.jpg",
    "name": "Keep Pace",
    "permission": {
        "default": 0
    },
    "type": "feat"
}
