{
    "_id": "1muxLx8Vacn2SLHc",
    "data": {
        "actionCategory": {
            "value": ""
        },
        "actionType": {
            "value": "action"
        },
        "actions": {
            "value": "1"
        },
        "description": {
            "chat": "",
            "unidentified": "",
            "value": "<p>You deliver a punishing blow to an enemy's knee, shin, or other vulnerable anatomy within your reach.</p>\n<p>Make a <a class=\"entity-link\" data-pack=\"pf2e.actionspf2e\" data-id=\"VjxZFuUXrCU94MWR\" draggable=\"true\"><i class=\"fas fa-suitcase\"></i> Strike</a> with one of your melee weapons or melee unarmed attacks. This attack doesn't deal damage. On a hit, the target takes a –10-foot status penalty to its Speed or a –15-foot status penalty on a critical hit.</p>\n<p>This penalty applies only if the target has a land Speed and depends on legs or other targetable appendages to use its land Speed. As with all penalties to Speed, this can't reduce a creature's Speed below 5 feet.</p>"
        },
        "featType": {
            "value": "ancestry"
        },
        "level": {
            "value": "5"
        },
        "prerequisites": {
            "value": ""
        },
        "rarity": {
            "value": "common"
        },
        "source": {
            "value": ""
        },
        "traits": {
            "rarity": {
                "value": "common"
            },
            "value": [
                "goblin"
            ]
        },
        "usage": {
            "value": ""
        }
    },
    "flags": {},
    "img": "systems/pf2e/icons/features/feats/feats.jpg",
    "name": "Kneecap",
    "permission": {
        "default": 0
    },
    "type": "feat"
}
