{
    "_id": "jIMeialR9CBo1bx9",
    "data": {
        "actionCategory": {
            "value": ""
        },
        "actionType": {
            "value": "action"
        },
        "actions": {
            "value": "2"
        },
        "description": {
            "chat": "",
            "unidentified": "",
            "value": "<p><span id=\"ctl00_MainContent_DetailedOutput\"><strong>Archetype</strong> @Compendium[pf2e.archetypes.XZwGLLgC1sIKlR1c]{Staff Acrobat}<br><strong>Prerequisites</strong> Staff Acrobat Dedication<br><strong>Requirements</strong> You are wielding your staff.<br></span></p>\n<hr>\n<p>Make a Strike with your staff. As long as you don't critically fail, the target becomes @Compendium[pf2e.conditionspf2e.AJh5ex99aV6VTggg]{Flat-Footed} and takes a –2 circumstance penalty to its DC against @Compendium[pf2e.actionspf2e.7blmbDrQFNfdT731]{Shove}, @Compendium[pf2e.actionspf2e.ge56Lu1xXVFYUnLP]{Trip}, and @Compendium[pf2e.actionspf2e.21WIfSu7Xd7uKqV8]{Tumble Through} attempts until the start of your next turn.&nbsp;</p>"
        },
        "featType": {
            "value": "archetype"
        },
        "level": {
            "value": "8"
        },
        "prerequisites": {
            "value": "Staff Acrobat Dedication"
        },
        "rarity": {
            "value": "common"
        },
        "source": {
            "value": ""
        },
        "traits": {
            "custom": "",
            "rarity": {
                "value": "uncommon"
            },
            "value": [
                "archetype",
                "press"
            ]
        },
        "usage": {
            "value": "held-in-one-hand"
        }
    },
    "flags": {},
    "img": "systems/pf2e/icons/features/feats/feats.jpg",
    "name": "Levering Strike",
    "permission": {
        "default": 0
    },
    "type": "feat"
}
