{
    "_id": "I10dkdvL6kAnqZWA",
    "data": {
        "actionCategory": {
            "value": ""
        },
        "actionType": {
            "value": "passive"
        },
        "actions": {
            "value": ""
        },
        "description": {
            "chat": "",
            "unidentified": "",
            "value": "<p><strong>Prerequisites </strong>@Compendium[pf2e.classfeatures.g3mNzNphtVxyR9Xr]{Empiricism Methology} or @Compendium[pf2e.classfeatures.UIHUNNYZyQ3p4Vmo]{Interrogation Methodology}</p>\n<hr>\n<p>You're adept at noticing the tells of a liar — sweat, flushing, a quavering voice, a quickening pulse.</p>\n<p>You gain a +1 circumstance bonus to Perception checks to @Compendium[pf2e.actionspf2e.1xRFPTFtWtGJ9ELw]{Sense Motive} and to Perception DCs against attempts to @Compendium[pf2e.actionspf2e.ewwCglB7XOPLUz72]{Lie} to you.</p>\n<p>When you determine someone is lying to you, you can use their deceit to your advantage to gain a +1 circumstance bonus to the next Deception, Diplomacy, Intimidation, or Performance check you attempt against that creature within the next minute.</p>"
        },
        "featType": {
            "value": "class"
        },
        "level": {
            "value": "4"
        },
        "prerequisites": {
            "value": "empiricism or interrogation methodology"
        },
        "rarity": {
            "value": "common"
        },
        "source": {
            "value": ""
        },
        "traits": {
            "rarity": {
                "value": "common"
            },
            "value": [
                "investigator"
            ]
        },
        "usage": {
            "value": ""
        }
    },
    "flags": {},
    "img": "systems/pf2e/icons/features/feats/feats.jpg",
    "name": "Lie Detector",
    "permission": {
        "default": 0
    },
    "type": "feat"
}
