{
    "_id": "9WzZc110jCNnjjRz",
    "data": {
        "actionCategory": {
            "value": ""
        },
        "actionType": {
            "value": "passive"
        },
        "actions": {
            "value": ""
        },
        "description": {
            "chat": "",
            "unidentified": "",
            "value": "<p><strong>Prerequisites </strong>tenets of evil</p>\n<hr>\n<p>You've sworn to rid the world of the self - righteousness of celestial beings. Add the following tenet to your code, after the other tenets. “You must banish or slay celestials you encounter as long as you have a reasonable chance of success; in the incredibly unlikely event you find an evil celestial, you don't have to banish or kill it.”</p>\n<p>When you use your champion's reaction against a celestial, the extra damage you deal with <a class=\"entity-link\" data-pack=\"pf2e.actionspf2e\" data-id=\"VjxZFuUXrCU94MWR\" draggable=\"true\"><i class=\"fas fa-suitcase\"></i> Strikes</a> increases by 1 (or by 2 at 9th level and by 3 at 16th level).</p>"
        },
        "featType": {
            "value": "class"
        },
        "level": {
            "value": "2"
        },
        "prerequisites": {
            "value": "tenets of evil"
        },
        "rarity": {
            "value": "common"
        },
        "source": {
            "value": ""
        },
        "traits": {
            "rarity": {
                "value": "common"
            },
            "value": [
                "uncommon",
                "champion",
                "oath"
            ]
        },
        "usage": {
            "value": ""
        }
    },
    "flags": {},
    "img": "systems/pf2e/icons/features/feats/feats.jpg",
    "name": "Lightslayer Oath",
    "permission": {
        "default": 0
    },
    "type": "feat"
}
