{
    "_id": "4YeHOPzo3zOhZQCh",
    "data": {
        "actionCategory": {
            "value": ""
        },
        "actionType": {
            "value": "passive"
        },
        "actions": {
            "value": ""
        },
        "description": {
            "chat": "",
            "unidentified": "",
            "value": "<p><span id=\"ctl00_MainContent_DetailedOutput\"><strong>Prerequisites</strong> Basic Red Mantis Magic<br></span></p>\n<hr>\n<p>You gain the @Compendium[pf2e.spells-srd.bKDsmKVosexwJ80i]{Mantis Form} focus spell. If you don't already have one, you gain a focus pool of 1 Focus Point, which you can Refocus by praying to Achaekek or researching your assigned kill.&nbsp;</p>"
        },
        "featType": {
            "value": "archetype"
        },
        "level": {
            "value": "8"
        },
        "prerequisites": {
            "value": "Basic Red Mantis Magic"
        },
        "rarity": {
            "value": "common"
        },
        "source": {
            "value": ""
        },
        "traits": {
            "custom": "",
            "rarity": {
                "value": "common"
            },
            "value": [
                "archetype"
            ]
        },
        "usage": {
            "value": "held-in-one-hand"
        }
    },
    "flags": {},
    "img": "systems/pf2e/icons/features/feats/feats.jpg",
    "name": "Mantis Form",
    "permission": {
        "default": 0
    },
    "type": "feat"
}
