{
    "_id": "uCElsebJ45ltmZMT",
    "data": {
        "actionCategory": {
            "value": ""
        },
        "actionType": {
            "value": "passive"
        },
        "actions": {
            "value": ""
        },
        "description": {
            "chat": "",
            "unidentified": "",
            "value": "<p><strong>Prerequisites</strong> @Compendium[pf2e.feats-srd.wdmUH6hdat7jpEWt]{Beastmaster Dedication}</p>\n<hr>\n<p>All of your animal companions grow up, becoming mature animal companions and gaining additional capabilities (<em>Core Rulebook</em> 214). During an encounter, even if you don't use the @Compendium[pf2e.actionspf2e.q9nbyIF0PEBqMtYe]{Command an Animal} action, your animal companion can still use 1 action on your turn to either @Compendium[pf2e.actionspf2e.Bcxarzksqt9ezrs6]{Stride} or @Compendium[pf2e.actionspf2e.VjxZFuUXrCU94MWR]{Strike}.</p>"
        },
        "featType": {
            "value": "archetype"
        },
        "level": {
            "value": "4"
        },
        "prerequisites": {
            "value": "Beastmaster Dedication"
        },
        "rarity": {
            "value": "common"
        },
        "source": {
            "value": ""
        },
        "traits": {
            "rarity": {
                "value": "common"
            },
            "value": [
                "archetype"
            ]
        },
        "usage": {
            "value": ""
        }
    },
    "flags": {},
    "img": "systems/pf2e/icons/features/feats/feats.jpg",
    "name": "Mature Beastmaster Companion",
    "permission": {
        "default": 0
    },
    "type": "feat"
}
