{
    "_id": "renUpSO6MJXPSXow",
    "data": {
        "actionCategory": {
            "value": ""
        },
        "actionType": {
            "label": "Action Type",
            "type": "String",
            "value": "passive"
        },
        "actions": {
            "label": "Number of Actions",
            "type": "String",
            "value": ""
        },
        "description": {
            "chat": "",
            "label": "Description",
            "type": "String",
            "unidentified": "",
            "value": "<p><strong>Prerequisites</strong> Strength 14, Dexterity 14</p>\n<hr>\n<p>You become trained in unarmed attacks and gain the powerful fist class feature (page 156). You become trained in your choice of Acrobatics or Athletics; if you are already trained in both of these skills, you become trained in a skill of your choice. You become trained in monk class DC.</p>\n<p><strong>Special</strong> You can't select another dedication feat until you have gained two other feats from the monk archetype.</p>"
        },
        "featType": {
            "label": "Feat Type",
            "type": "String",
            "value": "archetype"
        },
        "level": {
            "label": "Feat Level",
            "type": "String",
            "value": "2"
        },
        "prerequisites": {
            "label": "Prerequisites",
            "type": "String",
            "value": "Strength 14, Dexterity 14"
        },
        "rarity": {
            "value": "common"
        },
        "source": {
            "label": "Source",
            "type": "String",
            "value": ""
        },
        "traits": {
            "custom": "",
            "label": "Traits",
            "rarity": {
                "value": "common"
            },
            "type": "String",
            "value": [
                "archetype",
                "dedication",
                "multiclass"
            ]
        },
        "usage": {
            "value": "held-in-one-hand"
        }
    },
    "flags": {},
    "img": "systems/pf2e/icons/features/feats/feats.jpg",
    "name": "Monk Dedication",
    "permission": {
        "default": 0
    },
    "type": "feat"
}
