{
    "_id": "hPanopG3TbXKr52O",
    "data": {
        "actionCategory": {
            "value": ""
        },
        "actionType": {
            "value": "action"
        },
        "actions": {
            "value": "1"
        },
        "description": {
            "chat": "",
            "unidentified": "",
            "value": "<p><strong>Requirements</strong> You are transformed into a plant by a polymorph spell.</p>\n<hr>\n<p>Your plant form sprouts hundreds of spines, and your blood causes mild hallucinations in creatures exposed to it. Each time a creature touches you, hits you with an unarmed attack, or hits you with a melee weapon attack while adjacent to you, that creature takes 1d6 piercing damage. Increase the damage to 2d6 if the polymorph spell is 8th level or higher, or to 3d6 if it's 10th level.</p>\n<p>When an adjacent creature damages you with piercing or slashing damage, it must succeed at a Fortitude save against your class DC or become stupefied 1 (or stupefied 2 on a critical failure) until the end of its next turn.</p>\n<p>These benefits last until you're no longer polymorphed into a plant.</p>"
        },
        "featType": {
            "value": "class"
        },
        "level": {
            "value": "12"
        },
        "prerequisites": {
            "value": ""
        },
        "rarity": {
            "value": "common"
        },
        "rules": [],
        "source": {
            "value": ""
        },
        "traits": {
            "custom": "",
            "rarity": {
                "value": "common"
            },
            "value": [
                "druid",
                "morph"
            ]
        },
        "usage": {
            "value": "held-in-one-hand"
        }
    },
    "flags": {},
    "img": "systems/pf2e/icons/features/feats/feats.jpg",
    "name": "Pesh Skin",
    "permission": {
        "default": 0
    },
    "type": "feat"
}
