{
    "_id": "KYl1rWFOHe0e6VqJ",
    "data": {
        "actionCategory": {
            "value": ""
        },
        "actionType": {
            "value": "reaction"
        },
        "actions": {
            "value": ""
        },
        "description": {
            "chat": "",
            "unidentified": "",
            "value": "<p><strong>Trigger</strong> You attempt a saving throw against a hazard, but you haven't rolled yet.</p>\n<hr>\n<p>Your deity grants you limited foresight, warning you of dangers an instant before they occur. You gain a +2 circumstance bonus to the triggering saving throw.&nbsp;</p>"
        },
        "featType": {
            "value": "class"
        },
        "level": {
            "value": "1"
        },
        "prerequisites": {
            "value": ""
        },
        "rarity": {
            "value": "common"
        },
        "rules": [],
        "source": {
            "value": ""
        },
        "traits": {
            "rarity": {
                "value": "common"
            },
            "value": [
                "cleric"
            ]
        },
        "usage": {
            "value": ""
        }
    },
    "flags": {},
    "img": "systems/pf2e/icons/features/feats/feats.jpg",
    "name": "Premonition Of Avoidance",
    "permission": {
        "default": 0
    },
    "type": "feat"
}
