{
    "_id": "LAArv2uv6TOkTzQO",
    "data": {
        "actionCategory": {
            "value": ""
        },
        "actionType": {
            "value": "free"
        },
        "actions": {
            "value": null
        },
        "description": {
            "chat": "",
            "unidentified": "",
            "value": "<p><strong>Prerequisites </strong><a class=\"entity-link\" draggable=\"true\" data-pack=\"pf2e.feats-srd\" data-id=\"Pox93XMBaFmeLIDM\"><i class=\"fas fa-suitcase\"></i> Cheek Pouches</a></p>\n<p><strong>Frequency </strong>once per round</p>\n<hr>\n<p>You are adept at quickly moving items into your cheek pouches. You <a class=\"entity-link\" draggable=\"true\" data-pack=\"pf2e.actionspf2e\" data-id=\"pvQ5rY2zrtPI614F\"><i class=\"fas fa-suitcase\"></i> Interact</a> to store one held item in your cheek pouches (provided it fits).</p>"
        },
        "featType": {
            "value": "ancestry"
        },
        "level": {
            "value": "5"
        },
        "prerequisites": {
            "value": "Cheek Pouches"
        },
        "rarity": {
            "value": "common"
        },
        "rules": [],
        "source": {
            "value": ""
        },
        "traits": {
            "rarity": {
                "value": "common"
            },
            "value": [
                "ratfolk"
            ]
        },
        "usage": {
            "value": ""
        }
    },
    "effects": [],
    "flags": {},
    "img": "systems/pf2e/icons/features/feats/feats.jpg",
    "name": "Quick Stow (Ratfolk)",
    "permission": {
        "default": 0
    },
    "type": "feat"
}
