{
    "_id": "P9dVBWB8nYZt4AFA",
    "data": {
        "actionCategory": {
            "value": ""
        },
        "actionType": {
            "value": "action"
        },
        "actions": {
            "value": "1"
        },
        "description": {
            "chat": "",
            "unidentified": "",
            "value": "<p><span id=\"ctl00_MainContent_DetailedOutput\"><strong>Prerequisites</strong> master in Religion, good or evil deity<br></span></p>\n<hr>\n<p>You imbue water with your deity's blessing. Choose a container of water on your person that is of light Bulk. For 1 round, if you or an ally throw this container at a foe, it has the damaging effects of @Compendium[pf2e.equipment-srd.efFe4EK7ThUrH446]{Holy Water} (if you follow a good deity) or @Compendium[pf2e.equipment-srd.uplCUQwMwBOBHz0E]{Unholy Water} (if you follow an evil deity). The water's transient power doesn't make it gain any value, allow it to be used to supply the cost for a spell or ritual, and so on. If you have legendary proficiency in Religion, you can sanctify three containers held by you or allies within your reach instead of one.&nbsp;</p>"
        },
        "featType": {
            "value": "skill"
        },
        "level": {
            "value": "7"
        },
        "prerequisites": {
            "value": "master in Religion, good or evil deity"
        },
        "rarity": {
            "value": "common"
        },
        "rules": [],
        "source": {
            "value": ""
        },
        "traits": {
            "custom": "",
            "rarity": {
                "value": "common"
            },
            "value": [
                "general",
                "skill"
            ]
        },
        "usage": {
            "value": "held-in-one-hand"
        }
    },
    "flags": {},
    "img": "systems/pf2e/icons/features/feats/feats.jpg",
    "name": "Sanctify Water",
    "permission": {
        "default": 0
    },
    "type": "feat"
}
