{
    "_id": "eR0sifECG27CC4do",
    "data": {
        "actionCategory": {
            "value": ""
        },
        "actionType": {
            "value": "passive"
        },
        "actions": {
            "value": ""
        },
        "description": {
            "chat": "",
            "unidentified": "",
            "value": "<p><strong>Prerequisites </strong><a class=\"entity-link\" data-pack=\"pf2e.feats-srd\" data-id=\"oo34CloLefFRi72w\" draggable=\"true\"><i class=\"fas fa-suitcase\"></i> Dragon Disciple Dedication</a></p>\n<hr>\n<p>You've discovered how to transform yourself into a dragon. Once per day, you can cast 7th-level <a class=\"entity-link\" data-pack=\"pf2e.spells-srd\" data-id=\"5c692cCcTDXjSEzk\" draggable=\"true\"><i class=\"fas fa-suitcase\"></i> Dragon Form</a> as an innate arcane spell, transforming into your chosen type of dragon. The spell automatically heightens to 8th level if you're 16th level and 9th level if you're 18th level.</p>\n<p>Any time you score a critical hit with an unarmed <a class=\"entity-link\" data-pack=\"pf2e.actionspf2e\" data-id=\"VjxZFuUXrCU94MWR\" draggable=\"true\"><i class=\"fas fa-suitcase\"></i> Strike</a> gained from <em>dragon form</em>, you recharge the spell's breath weapon immediately.</p>"
        },
        "featType": {
            "value": "archetype"
        },
        "level": {
            "value": "14"
        },
        "prerequisites": {
            "value": "Dragon Disciple Dedication"
        },
        "rarity": {
            "value": "common"
        },
        "rules": [],
        "source": {
            "value": ""
        },
        "traits": {
            "rarity": {
                "value": "common"
            },
            "value": [
                "archetype"
            ]
        },
        "usage": {
            "value": ""
        }
    },
    "flags": {},
    "img": "systems/pf2e/icons/features/feats/feats.jpg",
    "name": "Shape Of The Dragon",
    "permission": {
        "default": 0
    },
    "type": "feat"
}
