{
    "_id": "VsTmB32x9673ONJ0",
    "data": {
        "actionCategory": {
            "value": ""
        },
        "actionType": {
            "label": "Action Type",
            "type": "String",
            "value": "reaction"
        },
        "actions": {
            "label": "Number of Actions",
            "type": "String",
            "value": ""
        },
        "description": {
            "chat": "",
            "label": "Description",
            "type": "String",
            "unidentified": "",
            "value": "<p><strong>Prerequisites</strong> champion's reaction, divine ally (shield), tenets of good, Shield Warden</p>\n<p><strong>Trigger</strong> A foe's attack against an ally matches the trigger for both your Shield Block reaction and your champion's reaction</p>\n<hr>\n<p>When you shield your ally against an attack, you call upon your power to protect your ally further. You use the Shield Block reaction to prevent damage to an ally and also use your champion's reaction against the foe that attacked your ally.</p>"
        },
        "featType": {
            "label": "Feat Type",
            "type": "String",
            "value": "class"
        },
        "level": {
            "label": "Feat Level",
            "type": "String",
            "value": "10"
        },
        "prerequisites": {
            "label": "Prerequisites",
            "type": "String",
            "value": "champion's reaction, divine ally (shield), tenets of good, Shield Warden"
        },
        "rarity": {
            "value": "common"
        },
        "rules": [],
        "source": {
            "label": "Source",
            "type": "String",
            "value": ""
        },
        "traits": {
            "custom": "",
            "label": "Traits",
            "rarity": {
                "value": "common"
            },
            "type": "String",
            "value": [
                "champion",
                "flourish"
            ]
        },
        "usage": {
            "value": "held-in-one-hand"
        }
    },
    "flags": {},
    "img": "systems/pf2e/icons/features/feats/feats.jpg",
    "name": "Shield of Reckoning",
    "permission": {
        "default": 0
    },
    "type": "feat"
}
