{
    "_id": "plhQDES7yb6xDAXL",
    "data": {
        "actionCategory": {
            "value": ""
        },
        "actionType": {
            "value": "passive"
        },
        "actions": {
            "value": ""
        },
        "description": {
            "chat": "",
            "unidentified": "",
            "value": "<p><span id=\"ctl00_MainContent_DetailedOutput\"><strong>Prerequisites</strong> Garundi, Mauxi, or Tian-Yae ethnicity; Shory Aeromancer or ability to cast @Compendium[pf2e.spells-srd.A2JfEKe6BZcTG1S8]{Fly}<br></span></p>\n<hr>\n<p>Unique in Golarion's history, the Shory people developed fighting styles dedicated to combat in the air. You gain a +2 circumstance bonus to Acrobatics checks to Maneuver in Flight and a +5-foot status bonus to your fly Speed whenever you are flying via magic.&nbsp;</p>"
        },
        "featType": {
            "value": "ancestry"
        },
        "level": {
            "value": "13"
        },
        "prerequisites": {
            "value": "Garundi, Mauxi, or Tian-Yae ethnicity; Shory Aeromancer or ability to cast fly﻿"
        },
        "rarity": {
            "value": "common"
        },
        "rules": [],
        "source": {
            "value": ""
        },
        "traits": {
            "custom": "",
            "rarity": {
                "value": "common"
            },
            "value": [
                "human"
            ]
        },
        "usage": {
            "value": "held-in-one-hand"
        }
    },
    "flags": {},
    "img": "systems/pf2e/icons/features/feats/feats.jpg",
    "name": "Shory Aerialist",
    "permission": {
        "default": 0
    },
    "type": "feat"
}
