{
    "_id": "zbnL5OP4zVaNFcq8",
    "data": {
        "actionCategory": {
            "value": ""
        },
        "actionType": {
            "value": "action"
        },
        "actions": {
            "value": "1"
        },
        "description": {
            "chat": "",
            "unidentified": "",
            "value": "<p><strong>Prerequisites </strong><a class=\"entity-link\" data-pack=\"pf2e.feats-srd\" data-id=\"MYzRfNExDYp25rro\" draggable=\"true\"><i class=\"fas fa-suitcase\"></i> Marshal Dedication</a></p>\n<hr>\n<p>You give a quick shout, hoping to shake the fog clouding your ally's thoughts.</p>\n<p>Choose one target ally within your marshal's aura who is affected by a mental effect that allowed a Will save and has a duration of no longer than 1 minute. That ally can immediately attempt a Will save with a +1 circumstance bonus against the effect's DC, ending the effect on a success. This can't end the effect for any creatures other than your target ally.</p>\n<p>Regardless of the result of the save, your ally is temporarily immune to Snap Out of It! for 10 minutes.</p>"
        },
        "featType": {
            "value": "archetype"
        },
        "level": {
            "value": "4"
        },
        "prerequisites": {
            "value": "Marshal Dedication"
        },
        "rarity": {
            "value": "common"
        },
        "rules": [],
        "source": {
            "value": ""
        },
        "traits": {
            "rarity": {
                "value": "common"
            },
            "value": [
                "archetype",
                "auditory",
                "emotion",
                "mental"
            ]
        },
        "usage": {
            "value": ""
        }
    },
    "effects": [],
    "flags": {},
    "img": "systems/pf2e/icons/features/feats/feats.jpg",
    "name": "Snap Out Of It! (Marshal)",
    "permission": {
        "default": 0
    },
    "type": "feat"
}
