{
    "_id": "pfBVx5xBfwKd1iVL",
    "data": {
        "actionCategory": {
            "value": ""
        },
        "actionType": {
            "value": "passive"
        },
        "actions": {
            "value": null
        },
        "description": {
            "chat": "",
            "unidentified": "",
            "value": "<p><strong>Prerequisites </strong>Pathfinder Agent Dedication</p>\n<hr>\n<p>You're familiar with the danger that lingering spirits can pose to an unwary adventurer, and you're particularly attuned to their presence. Even if you aren't Searching in exploration mode, you can attempt a check to find haunts that normally require you to Search for them. You still need to meet any other requirements to find a particular haunt.</p>"
        },
        "featType": {
            "value": "archetype"
        },
        "level": {
            "value": "4"
        },
        "prerequisites": {
            "value": "Pathfinder Agent Dedication"
        },
        "rarity": {
            "value": "common"
        },
        "rules": [],
        "source": {
            "value": ""
        },
        "traits": {
            "custom": "",
            "rarity": {
                "value": "common"
            },
            "value": [
                "archetype"
            ]
        },
        "usage": {
            "value": "held-in-one-hand"
        }
    },
    "effects": [],
    "flags": {
        "core": {
            "sourceId": "Item.eRB9slElzURCMbhT"
        }
    },
    "img": "systems/pf2e/icons/features/feats/feats.jpg",
    "name": "Spiritual Explorer",
    "permission": {
        "default": 0
    },
    "type": "feat"
}
