{
    "_id": "NgUB5toKxBd8RJmm",
    "data": {
        "actionCategory": {
            "value": ""
        },
        "actionType": {
            "value": "passive"
        },
        "actions": {
            "value": ""
        },
        "description": {
            "chat": "",
            "unidentified": "",
            "value": "<p>Your plans account for your foes' resistances, enabling you to strike a telling blow. When you hit with a Strike on which you substituted your attack roll due to <a class=\"entity-link\" data-pack=\"pf2e.actionspf2e\" data-id=\"m0f2B7G9eaaTmhFL\" draggable=\"true\"><i class=\"fas fa-suitcase\"></i> Devise a Strategem</a>, you ignore an amount of resistance equal to your Intelligence modifier for each resistance that applies against your attack.&nbsp;</p>"
        },
        "featType": {
            "value": "class"
        },
        "level": {
            "value": "14"
        },
        "prerequisites": {
            "value": ""
        },
        "rarity": {
            "value": "common"
        },
        "rules": [],
        "source": {
            "value": ""
        },
        "traits": {
            "rarity": {
                "value": "common"
            },
            "value": [
                "investigator"
            ]
        },
        "usage": {
            "value": ""
        }
    },
    "flags": {},
    "img": "systems/pf2e/icons/features/feats/feats.jpg",
    "name": "Strategic Bypass",
    "permission": {
        "default": 0
    },
    "type": "feat"
}
