{
    "_id": "ZdL8pPPV0QCkBML1",
    "data": {
        "actionCategory": {
            "value": ""
        },
        "actionType": {
            "value": "action"
        },
        "actions": {
            "value": "2"
        },
        "description": {
            "chat": "",
            "unidentified": "",
            "value": "<p><span id=\"ctl00_MainContent_DetailedOutput\"><strong>Prerequisites</strong> <a class=\"entity-link\" draggable=\"true\" data-pack=\"pf2e.feats-srd\" data-id=\"qFt6zyWVX1njJf1l\"><i class=\"fas fa-suitcase\"></i> Quick Draw</a><br><strong>Access</strong> Help either the Washboard Dogs or the Diobel Sweepers destroy their rival. <br><strong>Requirements</strong> You have a melee weapon of light bulk <a class=\"entity-link\" draggable=\"true\" data-pack=\"pf2e.conditionitems\" data-id=\"DmAIPqOBomZ7H95W\"><i class=\"fas fa-suitcase\"></i> Concealed</a> on your person via the Stealth skill, and the target isn't aware of it.<br></span></p>\n<hr>\n<p>You draw a concealed weapon, attack with it, and then hide it away again in one smooth motion. Interact to draw the weapon, Strike with that weapon, and then Conceal it with a Stealth check. The target is <a class=\"entity-link\" draggable=\"true\" data-pack=\"pf2e.conditionitems\" data-id=\"AJh5ex99aV6VTggg\"><i class=\"fas fa-suitcase\"></i> Flat-Footed</a>&nbsp;for this attack.</p>"
        },
        "featType": {
            "value": "class"
        },
        "level": {
            "value": "8"
        },
        "prerequisites": {
            "value": null
        },
        "rarity": {
            "value": "common"
        },
        "rules": [],
        "source": {
            "value": ""
        },
        "traits": {
            "custom": "",
            "rarity": {
                "value": "uncommon"
            },
            "value": [
                "flourish",
                "rogue"
            ]
        },
        "usage": {
            "value": "held-in-one-hand"
        }
    },
    "effects": [],
    "flags": {
        "core": {
            "sourceId": "Item.tjaUFLcu8JBwjJ8f"
        }
    },
    "img": "systems/pf2e/icons/features/feats/feats.jpg",
    "name": "Subtle Shank",
    "permission": {
        "default": 0
    },
    "type": "feat"
}
