{
    "_id": "lZ0swL9EEUgbAuaZ",
    "data": {
        "actionCategory": {
            "value": ""
        },
        "actionType": {
            "value": "passive"
        },
        "actions": {
            "value": ""
        },
        "description": {
            "chat": "",
            "unidentified": "",
            "value": "<p><strong>Prerequisites </strong>@Compendium[pf2e.feats-srd.eAlrvPVb8qt8Lruw]{Swashbuckler Dedication}</p>\n<hr>\n<p>You've learned to riposte against ill-conceived attacks. You gain the @Compendium[pf2e.actionspf2e.EfjoIuDmtUn4yiow]{Opportune Riposte} reaction.</p>"
        },
        "featType": {
            "value": "archetype"
        },
        "level": {
            "value": "6"
        },
        "prerequisites": {
            "value": "Swashbuckler Dedication"
        },
        "rarity": {
            "value": "common"
        },
        "rules": [],
        "source": {
            "value": ""
        },
        "traits": {
            "rarity": {
                "value": "common"
            },
            "value": [
                "archetype"
            ]
        },
        "usage": {
            "value": ""
        }
    },
    "flags": {},
    "img": "systems/pf2e/icons/features/feats/feats.jpg",
    "name": "Swashbuckler's Riposte",
    "permission": {
        "default": 0
    },
    "type": "feat"
}
