{
    "_id": "ZyQYP7i26DWhMNux",
    "data": {
        "actionCategory": {
            "value": ""
        },
        "actionType": {
            "value": "action"
        },
        "actions": {
            "value": "1"
        },
        "description": {
            "chat": "",
            "unidentified": "",
            "value": "<div><strong>Prerequisites</strong> @Compendium[pf2e.feats-srd.UyyrFtPWOo0qvXOv]{Zephyr Guard Dedication}, expert in Perception</div>\n<hr>\n<p>You have witnessed hundreds of fighting styles and quickly adapt to defend against complicated maneuvers. Choose a creature within 30 feet who you're aware of, and attempt a Perception check against that target's Will DC. If you succeed, you size up their fighting style, gaining a +1 circumstance bonus to AC and saving throws against that creature's attacks (or a +2 circumstance bonus for a critical success). These benefits last until the end of your next turn.</p>"
        },
        "featType": {
            "value": "archetype"
        },
        "level": {
            "value": "8"
        },
        "prerequisites": {
            "value": "Zephyr Guard Dedication, expert in Perception"
        },
        "rarity": {
            "value": "common"
        },
        "rules": [],
        "source": {
            "value": ""
        },
        "traits": {
            "custom": "",
            "rarity": {
                "value": "common"
            },
            "value": [
                "archetype"
            ]
        },
        "usage": {
            "value": "held-in-one-hand"
        }
    },
    "flags": {},
    "img": "systems/pf2e/icons/features/feats/feats.jpg",
    "name": "Unfazed Assessment",
    "permission": {
        "default": 0
    },
    "type": "feat"
}
