{
    "_id": "2nSk6oOLBXCEbAhc",
    "data": {
        "actionCategory": {
            "value": ""
        },
        "actionType": {
            "value": "reaction"
        },
        "actions": {
            "value": ""
        },
        "description": {
            "chat": "",
            "unidentified": "",
            "value": "<p><strong>Prerequisites</strong> @Compendium[pf2e.feats-srd.20jNBiIIxaiOVyi0]{Oozemorph Dedication}</p>\n<p><strong>Trigger</strong> You fail (but don't critically fail) a saving throw against an effect with the visual trait.</p>\n<hr>\n<p>You cause your eyes to liquefy and run out of your eye sockets, leaving them empty. You get a success on the save against the triggering effect, but you are @Compendium[pf2e.conditionspf2e.XgEqL1kFApUbl5Z2]{Blinded} for the duration the effect would have had on a failure. At that time, your eyes regrow and your normal vision returns.</p>"
        },
        "featType": {
            "value": "archetype"
        },
        "level": {
            "value": "6"
        },
        "prerequisites": {
            "value": ""
        },
        "rarity": {
            "value": "common"
        },
        "rules": [],
        "source": {
            "value": ""
        },
        "traits": {
            "custom": "",
            "rarity": {
                "value": "common"
            },
            "selected": {
                "archetype": "Archetype"
            },
            "value": [
                "archetype"
            ]
        },
        "usage": {
            "value": "held-in-one-hand"
        }
    },
    "flags": {},
    "img": "systems/pf2e/icons/features/feats/feats.jpg",
    "name": "Vacate Vision",
    "permission": {
        "default": 0
    },
    "type": "feat"
}
