{
    "_id": "D2tyUKQiDSq3JO1Z",
    "data": {
        "actionCategory": {
            "value": ""
        },
        "actionType": {
            "value": "passive"
        },
        "actions": {
            "value": ""
        },
        "description": {
            "chat": "",
            "unidentified": "",
            "value": "<p><span id=\"ctl00_MainContent_DetailedOutput\">Your physique is robust and can withstand blood loss startlingly well. Whenever you would gain the <a class=\"entity-link\" data-pack=\"pf2e.conditionspf2e\" data-id=\"4D2KBtexWXa6oUMR\" draggable=\"true\"><i class=\"fas fa-book-open\"></i> Drained</a> condition, you can attempt a DC 17 flat check. On a success, you don't gain the drained condition.&nbsp;</span></p>"
        },
        "featType": {
            "value": "ancestry"
        },
        "level": {
            "value": "1"
        },
        "prerequisites": {
            "value": ""
        },
        "rarity": {
            "value": "common"
        },
        "rules": [],
        "source": {
            "value": ""
        },
        "traits": {
            "custom": "",
            "rarity": {
                "value": "common"
            },
            "value": [
                "hobgoblin"
            ]
        },
        "usage": {
            "value": "held-in-one-hand"
        }
    },
    "flags": {},
    "img": "systems/pf2e/icons/features/feats/feats.jpg",
    "name": "Vigorous Health",
    "permission": {
        "default": 0
    },
    "type": "feat"
}
